…
---

    Code
      filter_tomic(brauer_2008_triple, filter_type = "quo", filter_table = "features",
        filter_variable = "bar", filter_value = rlang::quo(BP ==
          "biological process unknown"))
    Message
      ! `filter_variable` was provided when `filter_type` is "quo"; only `filter_value` should be passed. `filter_variable` will be ignored
    Output
      $features
      # A tibble: 110 x 4
         name    BP                         MF                         systematic_name
         <chr>   <chr>                      <chr>                      <chr>          
       1 YOL029C biological process unknown molecular function unknown YOL029C        
       2 YHR036W biological process unknown molecular function unknown YHR036W        
       3 YAL046C biological process unknown molecular function unknown YAL046C        
       4 YHR151C biological process unknown molecular function unknown YHR151C        
       5 YKL027W biological process unknown molecular function unknown YKL027W        
       6 YBR220C biological process unknown molecular function unknown YBR220C        
       7 YLR057W biological process unknown molecular function unknown YLR057W        
       8 YDR239C biological process unknown molecular function unknown YDR239C        
       9 KKQ8    biological process unknown protein kinase activity    YKL168C        
      10 UIP5    biological process unknown molecular function unknown YKR044W        
      # i 100 more rows
      
      $samples
      # A tibble: 36 x 3
         sample nutrient    DR
         <chr>  <chr>    <dbl>
       1 G0.05  G         0.05
       2 G0.1   G         0.1 
       3 G0.15  G         0.15
       4 G0.2   G         0.2 
       5 G0.25  G         0.25
       6 G0.3   G         0.3 
       7 N0.05  N         0.05
       8 N0.1   N         0.1 
       9 N0.15  N         0.15
      10 N0.2   N         0.2 
      # i 26 more rows
      
      $measurements
      # A tibble: 3,960 x 3
         name    sample expression
         <chr>   <chr>       <dbl>
       1 YOL029C G0.05       -0.22
       2 YOL029C G0.1        -0.18
       3 YOL029C G0.15        0.27
       4 YOL029C G0.2         0.18
       5 YOL029C G0.25        0.03
       6 YOL029C G0.3        -0.04
       7 YOL029C N0.05        0.26
       8 YOL029C N0.1         0.15
       9 YOL029C N0.15        0.04
      10 YOL029C N0.2        -0.07
      # i 3,950 more rows
…
---

    Code
      filter_tomic(brauer_2008_triple, filter_type = "quo", filter_table = "features",
        filter_variable = "bar", filter_value = rlang::quo(BP ==
          "biological process unknown"))
    Message
      ! `filter_variable` was provided when `filter_type` is "quo"; only `filter_value` should be passed. `filter_variable` will be ignored
    Output
      $features
      # A tibble: 110 × 4
         name    BP                         MF                         systematic_name
         <chr>   <chr>                      <chr>                      <chr>          
       1 YOL029C biological process unknown molecular function unknown YOL029C        
       2 YHR036W biological process unknown molecular function unknown YHR036W        
       3 YAL046C biological process unknown molecular function unknown YAL046C        
       4 YHR151C biological process unknown molecular function unknown YHR151C        
       5 YKL027W biological process unknown molecular function unknown YKL027W        
       6 YBR220C biological process unknown molecular function unknown YBR220C        
       7 YLR057W biological process unknown molecular function unknown YLR057W        
       8 YDR239C biological process unknown molecular function unknown YDR239C        
       9 KKQ8    biological process unknown protein kinase activity    YKL168C        
      10 UIP5    biological process unknown molecular function unknown YKR044W        
      # ℹ 100 more rows
      
      $samples
      # A tibble: 36 × 3
         sample nutrient    DR
         <chr>  <chr>    <dbl>
       1 G0.05  G         0.05
       2 G0.1   G         0.1 
       3 G0.15  G         0.15
       4 G0.2   G         0.2 
       5 G0.25  G         0.25
       6 G0.3   G         0.3 
       7 N0.05  N         0.05
       8 N0.1   N         0.1 
       9 N0.15  N         0.15
      10 N0.2   N         0.2 
      # ℹ 26 more rows
      
      $measurements
      # A tibble: 3,960 × 3
         name    sample expression
         <chr>   <chr>       <dbl>
       1 YOL029C G0.05       -0.22
       2 YOL029C G0.1        -0.18
       3 YOL029C G0.15        0.27
       4 YOL029C G0.2         0.18
       5 YOL029C G0.25        0.03
       6 YOL029C G0.3        -0.04
       7 YOL029C N0.05        0.26
       8 YOL029C N0.1         0.15
       9 YOL029C N0.15        0.04
      10 YOL029C N0.2        -0.07
      # ℹ 3,950 more rows
…
